<?xml version="1.0" encoding="utf-8"?>
<!-- Generator: Adobe Illustrator 23.0.2, SVG Export Plug-In . SVG Version: 6.00 Build 0)  -->
<svg version="1.1" xmlns="http://www.w3.org/2000/svg" xmlns:xlink="http://www.w3.org/1999/xlink" x="0px" y="0px"
	 viewBox="0 0 595.28 841.89" style="enable-background:new 0 0 595.28 841.89;" xml:space="preserve">
<style type="text/css">
	.st0{fill:#00589D;}
	.st1{fill:#FFCB05;}
	.st2{fill:#FFFFFF;}
</style>
<g id="Layer_1">
	<g>
		<g>
			<path class="st0" d="M209.13,150.39h-15.26c-1.21,0-2.18-0.98-2.18-2.18v-15.25c0-1.21,0.98-2.18,2.18-2.18h15.26
				c1.21,0,2.18,0.98,2.18,2.18v15.25C211.31,149.41,210.33,150.39,209.13,150.39z"/>
			<path class="st1" d="M214.04,189.28h-22.08c-1.89,0-3.42-1.53-3.42-3.42v-22.08c0-1.89,1.53-3.42,3.42-3.42h22.08
				c1.89,0,3.42,1.53,3.42,3.42v22.08C217.46,187.75,215.93,189.28,214.04,189.28z"/>
			<path class="st1" d="M174.87,155.94h-17.65c-1.89,0-3.42-1.53-3.42-3.42v-17.65c0-1.89,1.53-3.42,3.42-3.42h17.65
				c1.89,0,3.42,1.53,3.42,3.42v17.65C178.29,154.41,176.76,155.94,174.87,155.94z"/>
			<path class="st0" d="M171.58,204.09h-29.2c-3.24,0-5.86-2.62-5.86-5.86v-29.2c0-3.24,2.62-5.86,5.86-5.86h29.2
				c3.24,0,5.86,2.62,5.86,5.86v29.2C177.44,201.47,174.81,204.09,171.58,204.09z"/>
		</g>
		<g>
			<g>
				<path class="st2" d="M228.89,160.35h6.5v37.13h-6.5V160.35z"/>
				<path class="st2" d="M239.81,160.35h30.06v5.62h-11.8v31.51h-6.5v-31.51h-11.75V160.35z"/>
				<path class="st2" d="M274.18,160.35h6.5v31.51h18.88v5.62h-25.38V160.35z"/>
				<path class="st2" d="M307.83,185.57c0,4.21,2.29,7.96,7.23,7.96c3.48,0,5.51-1.51,6.55-4.47h5.62
					c-1.25,5.88-6.34,9.15-12.17,9.15c-8.48,0-13.16-5.82-13.16-14.14c0-7.64,4.99-14.2,13-14.2c8.48,0,13.68,7.64,12.69,15.71
					H307.83z M321.66,181.67c-0.26-3.74-2.7-7.12-6.76-7.12c-4.11,0-6.92,3.12-7.07,7.12H321.66z"/>
				<path class="st2" d="M354.63,191.5c0,1.46,0.31,2.03,1.4,2.03h0.62c0.26,0,0.52-0.05,0.83-0.1v4.11
					c-0.88,0.31-2.76,0.68-3.74,0.68c-2.44,0-4.11-0.83-4.58-3.28c-2.34,2.29-6.14,3.28-9.31,3.28c-4.84,0-9.2-2.6-9.2-7.85
					c0-6.71,5.36-7.8,10.35-8.37c4.32-0.83,8.06-0.26,8.06-3.8c0-3.12-3.22-3.64-5.56-3.64c-3.33,0-5.67,1.35-5.93,4.26h-5.93
					c0.42-6.92,6.24-8.94,12.22-8.94c5.25,0,10.76,2.13,10.76,7.8V191.5z M348.7,184.01c-1.82,1.2-4.63,1.14-7.28,1.61
					c-2.55,0.42-4.84,1.35-4.84,4.47c0,2.71,3.38,3.43,5.46,3.43c2.6,0,6.66-1.35,6.66-5.1V184.01z"/>
				<path class="st2" d="M386.35,197.48h-5.62v-3.64h-0.1c-1.61,3.12-4.94,4.37-8.32,4.37c-8.48,0-12.58-6.29-12.58-14.35
					c0-9.78,5.77-13.99,11.65-13.99c3.33,0,7.12,1.25,8.94,4.21h0.1v-13.73h5.93V197.48z M373.09,193.53c5.25,0,7.54-4.84,7.54-9.52
					c0-5.98-2.86-9.46-7.44-9.46c-5.56,0-7.54,4.99-7.54,9.78C365.65,188.95,367.94,193.53,373.09,193.53z"/>
				<path class="st2" d="M392.04,160.35h16.38c10.61,0,12.64,6.87,12.64,11.49s-2.03,11.39-12.64,11.39h-9.88v14.25h-6.5V160.35z
					 M398.54,177.93h9.52c2.91,0,6.5-1.46,6.5-6.14c0-4.89-2.96-6.14-6.4-6.14h-9.62V177.93z"/>
				<path class="st2" d="M425.89,170.59h5.56v5.2h0.1c0.68-2.86,4.26-5.93,7.85-5.93c1.4,0,1.66,0.1,2.24,0.16v5.72
					c-0.83-0.16-1.72-0.26-2.55-0.26c-4,0-7.28,3.22-7.28,9.2v12.79h-5.93V170.59z"/>
				<path class="st2" d="M442.01,184.01c0-8.16,4.99-14.14,13.57-14.14c8.58,0,13.57,5.98,13.57,14.14c0,8.27-4.99,14.2-13.57,14.2
					C447,198.21,442.01,192.28,442.01,184.01z M463.23,184.01c0-4.63-2.34-9.46-7.64-9.46c-5.3,0-7.64,4.84-7.64,9.46
					c0,4.68,2.34,9.52,7.64,9.52C460.89,193.53,463.23,188.69,463.23,184.01z"/>
			</g>
		</g>
	</g>
</g>
<g id="Layer_2">
</g>
</svg>
